%!PS-Adobe-2.0 EPSF-2.0
%%BoundingBox:  0 0 567 546
%%Title: exampleSimplePlot.eps: c
%%Creator: ROOT Version 6.18/04
%%CreationDate: Tue Dec 10 17:00:28 2019
%%DocumentNeededResources: ProcSet (FontSetInit)
%%EndComments
%%BeginProlog
80 dict begin
/s {stroke} def /l {lineto} def /m {moveto} def /t {translate} def
/r {rotate} def /rl {roll}  def /R {repeat} def
/d {rlineto} def /rm {rmoveto} def /gr {grestore} def /f {eofill} def
/c {setrgbcolor} def /black {0 setgray} def /sd {setdash} def
/cl {closepath} def /sf {scalefont setfont} def /lw {setlinewidth} def
/box {m dup 0 exch d exch 0 d 0 exch neg d cl} def
/NC{systemdict begin initclip end}def/C{NC box clip newpath}def
/bl {box s} def /bf {gsave box gsave f grestore 1 lw [] 0 sd s grestore} def /Y { 0 exch d} def /X { 0 d} def 
/K {{pop pop 0 moveto} exch kshow} bind def
/ita {/ang 15 def gsave [1 0 ang dup sin exch cos div 1 0 0] concat} def 
/mp {newpath /y exch def /x exch def} def
/side {[w .77 mul w .23 mul] .385 w mul sd w 0 l currentpoint t -144 r} def
/mr {mp x y w2 0 360 arc} def /m24 {mr s} def /m20 {mr f} def
/mb {mp x y w2 add m w2 neg 0 d 0 w neg d w 0 d 0 w d cl} def
/mt {mp x y w2 add m w2 neg w neg d w 0 d cl} def
/w4 {w 4 div} def
/w6 {w 6 div} def
/w8 {w 8 div} def
/m21 {mb f} def /m25 {mb s} def /m22 {mt f} def /m26{mt s} def
/m23 {mp x y w2 sub m w2 w d w neg 0 d cl f} def
/m27 {mp x y w2 add m w3 neg w2 neg d w3 w2 neg d w3 w2 d cl s} def
/m28 {mp x w2 sub y w2 sub w3 add m w3 0 d  0 w3 neg d w3 0 d 0 w3 d w3 0 d  0 w3 d w3 neg 0 d 0 w3 d w3 neg 0 d 0 w3 neg d w3 neg 0 d cl s } def
/m29 {mp gsave x w2 sub y w2 add w3 sub m currentpoint t 4 {side} repeat cl fill gr} def
/m30 {mp gsave x w2 sub y w2 add w3 sub m currentpoint t 4 {side} repeat cl s gr} def
/m31 {mp x y w2 sub m 0 w d x w2 sub y m w 0 d x w2 sub y w2 add m w w neg d x w2 sub y w2 sub m w w d s} def
/m32 {mp x y w2 sub m w2 w d w neg 0 d cl s} def
/m33 {mp x y w2 add m w3 neg w2 neg d w3 w2 neg d w3 w2 d cl f} def
/m34 {mp x w2 sub y w2 sub w3 add m w3 0 d  0 w3 neg d w3 0 d 0 w3 d w3 0 d  0 w3 d w3 neg 0 d 0 w3 d w3 neg 0 d 0 w3 neg d w3 neg 0 d cl f } def
/m35 {mp x y w2 add m w2 neg w2 neg d w2 w2 neg d w2 w2 d w2 neg w2 d x y w2 sub m 0 w d x w2 sub y m w 0 d s} def
/m36 {mb x w2 sub y w2 add m w w neg d x w2 sub y w2 sub m w w d s} def
/m37 {mp x y m w4 neg w2 d w4 neg w2 neg d w2 0 d  w4 neg w2 neg d w2 0 d w4 neg w2 d w2 0 d w4 neg w2 d w4 neg w2 neg d cl s} def
/m38 {mp x w4 sub y w2 add m w4 neg w4 neg d 0 w2 neg d w4 w4 neg d w2 0 d w4 w4 d 0 w2 d w4 neg w4 d w2 neg 0 d x y w2 sub m 0 w d x w2 sub y m w 0 d cl s} def
/m39 {mp x y m w4 neg w2 d w4 neg w2 neg d w2 0 d  w4 neg w2 neg d w2 0 d w4 neg w2 d w2 0 d w4 neg w2 d w4 neg w2 neg d cl f} def
/m40 {mp x y m w4 w2 d w4 w4 neg d w2 neg w4 neg d w2 w4 neg d w4 neg w4 neg d w4 neg w2 d w4 neg w2 neg d w4 neg w4 d w2 w4 d w2 neg w4 d w4 w4 d w4 w2 neg d cl s} def
/m41 {mp x y m w4 w2 d w4 w4 neg d w2 neg w4 neg d w2 w4 neg d w4 neg w4 neg d w4 neg w2 d w4 neg w2 neg d w4 neg w4 d w2 w4 d w2 neg w4 d w4 w4 d w4 w2 neg d cl f} def
/m42 {mp x y w2 add m w8 neg w2 -3 4 div mul d w2 -3 4 div mul w8 neg d w2 3 4 div mul w8 neg d w8 w2 -3 4 div mul d w8 w2 3 4 div mul d w2 3 4 div mul w8 d w2 -3 4 div mul w8 d w8 neg w2 3 4 div mul d cl s} def
/m43 {mp x y w2 add m w8 neg w2 -3 4 div mul d w2 -3 4 div mul w8 neg d w2 3 4 div mul w8 neg d w8 w2 -3 4 div mul d w8 w2 3 4 div mul d w2 3 4 div mul w8 d w2 -3 4 div mul w8 d w8 neg w2 3 4 div mul d cl f} def
/m44 {mp x y m w6 neg w2 d w2 2 3 div mul 0 d w6 neg w2 neg d w2 w6 d 0 w2 -2 3 div mul d w2 neg w6 d w6 w2 neg d w2 -2 3 div mul 0 d w6 w2 d w2 neg w6 neg d 0 w2 2 3 div mul d w2 w6 neg d cl s} def
/m45 {mp x y m w6 neg w2 d w2 2 3 div mul 0 d w6 neg w2 neg d w2 w6 d 0 w2 -2 3 div mul d w2 neg w6 d w6 w2 neg d w2 -2 3 div mul 0 d w6 w2 d w2 neg w6 neg d 0 w2 2 3 div mul d w2 w6 neg d cl f} def
/m46 {mp x y w4 add m w4 neg w4 d w4 neg w4 neg d  w4 w4 neg d w4 neg w4 neg d w4 w4 neg d w4 w4 d w4 w4 neg d w4 w4 d w4 neg w4 d w4 w4 d w4 neg w4 d w4 neg w4 neg d cl s} def
/m47 {mp x y w4 add m w4 neg w4 d w4 neg w4 neg d w4 w4 neg d w4 neg w4 neg d  w4 w4 neg d w4 w4 d w4 w4 neg d w4 w4 d w4 neg w4 d w4 w4 d w4 neg w4 d w4 neg w4 neg d cl f} def
/m48 {mp x y w4 add m w4 neg w4 d w4 neg w4 neg d w4 w4 neg d  w4 neg w4 neg d w4 w4 neg d w4 w4 d w4 w4 neg d w4 w4 d w4 neg w4 d w4 w4 d w4 neg w4 d w4 neg w4 neg d  w4 w4 neg d w4 neg w4 neg d w4 neg w4 d w4 w4 d cl f} def
/m49 {mp x w2 sub w3 add y w2 sub w3 add m  0 w3 neg d w3 0 d 0 w3 d w3 0 d 0 w3 d w3 neg 0 d 0 w3 d w3 neg 0 d 0 w3 neg d w3 neg 0 d 0 w3 neg d w3 0 d 0 w3 d w3 0 d 0 w3 neg d w3 neg 0 d cl f } def
/m2 {mp x y w2 sub m 0 w d x w2 sub y m w 0 d s} def
/m5 {mp x w2 sub y w2 sub m w w d x w2 sub y w2 add m w w neg d s} def
%%IncludeResource: ProcSet (FontSetInit)
%%IncludeResource: font Times-Roman
%%IncludeResource: font Times-Italic
%%IncludeResource: font Times-Bold
%%IncludeResource: font Times-BoldItalic
%%IncludeResource: font Helvetica
%%IncludeResource: font Helvetica-Oblique
%%IncludeResource: font Helvetica-Bold
%%IncludeResource: font Helvetica-BoldOblique
%%IncludeResource: font Courier
%%IncludeResource: font Courier-Oblique
%%IncludeResource: font Courier-Bold
%%IncludeResource: font Courier-BoldOblique
%%IncludeResource: font Symbol
%%IncludeResource: font ZapfDingbats
/reEncode {exch findfont dup length dict begin {1 index /FID eq  {pop pop} {def} ifelse } forall /Encoding exch def currentdict end dup /FontName get exch definefont pop } def [/Times-Bold /Times-Italic /Times-BoldItalic /Helvetica /Helvetica-Oblique
 /Helvetica-Bold /Helvetica-BoldOblique /Courier /Courier-Oblique /Courier-Bold /Courier-BoldOblique /Times-Roman /AvantGarde-Book /AvantGarde-BookOblique /AvantGarde-Demi /AvantGarde-DemiOblique /Bookman-Demi /Bookman-DemiItalic /Bookman-Light
 /Bookman-LightItalic /Helvetica-Narrow /Helvetica-Narrow-Bold /Helvetica-Narrow-BoldOblique /Helvetica-Narrow-Oblique /NewCenturySchlbk-Roman /NewCenturySchlbk-Bold /NewCenturySchlbk-BoldItalic /NewCenturySchlbk-Italic /Palatino-Bold
 /Palatino-BoldItalic /Palatino-Italic /Palatino-Roman ] {ISOLatin1Encoding reEncode } forall
%%EndProlog
%%BeginSetup
%%EndSetup
newpath  gsave  .25 .25 scale  gsave  0 0 t black[  ] 0 sd 6 lw 1 1 1 c 2268 2184 0 0 bf black 3 lw 1 1 1 c 1791 1845 363 258 bf black 1791 1845 363 258 bl 1 1 1 c black 1 1 1 c 363 258 m 1791 X s black 6 lw 363 258 m 1791 X s 363 303 m -45 Y s 475
 280 m -22 Y s 587 280 m -22 Y s 699 280 m -22 Y s 811 303 m -45 Y s 923 280 m -22 Y s 1035 280 m -22 Y s 1147 280 m -22 Y s 1259 303 m -45 Y s 1371 280 m -22 Y s 1483 280 m -22 Y s 1594 280 m -22 Y s 1706 303 m -45 Y s 1818 280 m -22 Y s 1930 280 m
 -22 Y s 2042 280 m -22 Y s 2154 303 m -45 Y s
 gsave  2268 2184 0 0 C 337.503 174.44 t 0 r /Helvetica findfont 83.4277 sf 0 0 m (0) show NC gr 
 gsave  2268 2184 0 0 C 762.226 174.44 t 0 r /Helvetica findfont 83.4277 sf 0 0 m (20) show NC gr 
 gsave  2268 2184 0 0 C 1209.7 174.44 t 0 r /Helvetica findfont 83.4277 sf 0 0 m (40) show NC gr 
 gsave  2268 2184 0 0 C 1657.18 174.44 t 0 r /Helvetica findfont 83.4277 sf 0 0 m (60) show NC gr 
 gsave  2268 2184 0 0 C 2108.45 174.44 t 0 r /Helvetica findfont 83.4277 sf 0 0 m (80) show NC gr 
 gsave  2268 2184 0 0 C 1930.21 87.2199 t 0 r /Helvetica findfont 83.4277 sf 0 0 m ( [GeV]) show NC gr 
 gsave  2268 2184 0 0 C 1892.29 41.7138 t 0 r /Helvetica findfont 56.8825 sf 0 0 m (T) show NC gr 
 gsave  2268 2184 0 0 C 1839.2 87.2199 t 0 r /Helvetica-Oblique findfont 83.4277 sf 0 0 m (p) show NC gr  363 2103 m 1791 X s 363 2059 m 44 Y s 475 2081 m 22 Y s 587 2081 m 22 Y s 699 2081 m 22 Y s 811 2059 m 44 Y s 923 2081 m 22 Y s 1035 2081 m 22 Y
 s 1147 2081 m 22 Y s 1259 2059 m 44 Y s 1371 2081 m 22 Y s 1483 2081 m 22 Y s 1594 2081 m 22 Y s 1706 2059 m 44 Y s 1818 2081 m 22 Y s 1930 2081 m 22 Y s 2042 2081 m 22 Y s 2154 2059 m 44 Y s 363 258 m 1845 Y s 408 258 m -45 X s 385 345 m -22 X s
 385 433 m -22 X s 385 521 m -22 X s 385 608 m -22 X s 408 696 m -45 X s 385 784 m -22 X s 385 871 m -22 X s 385 959 m -22 X s 385 1047 m -22 X s 408 1134 m -45 X s 385 1222 m -22 X s 385 1310 m -22 X s 385 1397 m -22 X s 385 1485 m -22 X s 408 1573
 m -45 X s 385 1660 m -22 X s 385 1748 m -22 X s 385 1836 m -22 X s 385 1924 m -22 X s 408 2011 m -45 X s 408 2011 m -45 X s 385 2099 m -22 X s
 gsave  2268 2184 0 0 C 238.907 227.53 t 0 r /Helvetica findfont 83.4277 sf 0 0 m (0.0) show NC gr 
 gsave  2268 2184 0 0 C 235.114 667.422 t 0 r /Helvetica findfont 83.4277 sf 0 0 m (0.5) show NC gr 
 gsave  2268 2184 0 0 C 238.907 1107.31 t 0 r /Helvetica findfont 83.4277 sf 0 0 m (1.0) show NC gr 
 gsave  2268 2184 0 0 C 235.114 1543.41 t 0 r /Helvetica findfont 83.4277 sf 0 0 m (1.5) show NC gr 
 gsave  2268 2184 0 0 C 238.907 1983.3 t 0 r /Helvetica findfont 83.4277 sf 0 0 m (2.0) show NC gr 
 gsave  2268 2184 0 0 C 117.557 1858.16 t 90 r /Helvetica findfont 83.4277 sf 0 0 m (Events) show NC gr  2154 258 m 1845 Y s 2109 258 m 45 X s 2132 345 m 22 X s 2132 433 m 22 X s 2132 521 m 22 X s 2132 608 m 22 X s 2109 696 m 45 X s 2132 784 m 22 X s
 2132 871 m 22 X s 2132 959 m 22 X s 2132 1047 m 22 X s 2109 1134 m 45 X s 2132 1222 m 22 X s 2132 1310 m 22 X s 2132 1397 m 22 X s 2132 1485 m 22 X s 2109 1573 m 45 X s 2132 1660 m 22 X s 2132 1748 m 22 X s 2132 1836 m 22 X s 2132 1924 m 22 X s 2109
 2011 m 45 X s 2109 2011 m 45 X s 2132 2099 m 22 X s
 gsave  2268 2184 0 0 C 747.057 1979.51 t 0 r /Helvetica findfont 83.4277 sf 0 0 m ( Internal) show NC gr 
 gsave  2268 2184 0 0 C 462.645 1979.51 t 0 r /Helvetica-BoldOblique findfont 83.4277 sf 0 0 m (ATLAS) show NC gr 
 gsave  2268 2184 0 0 C 974.587 1930.21 t 0 r /Helvetica findfont 56.8825 sf 0 0 m (\2551) show NC gr 
 gsave  2268 2184 0 0 C 462.645 1888.5 t 0 r /Helvetica findfont 83.4277 sf 0 0 m (13 TeV, 3.2 fb) show NC gr 
 gsave  2268 2184 0 0 C 546.072 1797.49 t 0 r /Helvetica findfont 83.4277 sf 0 0 m (TGraph) show NC gr  1 1 1 c 3 lw 468 1785 m 67 X 63 Y -67 X f 6 lw black 3 lw 468 1848 m 67 X s 468 1785 m 67 X s 535 1785 m 63 Y s 468 1785 m 63 Y s
 gsave  2268 2184 0 0 C 462.645 1706.48 t 0 r /Helvetica findfont 83.4277 sf 0 0 m (text) show NC gr 
 gsave  2268 2184 0 0 C 462.645 1619.26 t 0 r /Helvetica findfont 83.4277 sf 0 0 m (another text) show NC gr 
 gsave  2268 2184 0 0 C 462.645 1528.24 t 0 r /Helvetica findfont 83.4277 sf 0 0 m (another text) show NC gr  1 1 1 c 5 0 405 266 bf black 1 1 1 c 4 1 410 408 bf black 1 1 1 c 6 0 414 1121 bf black 1 1 1 c 6 0 420 1133 bf black 1 1 1 c 6 0 426 1134
 bf black 1 1 1 c 20 0 432 1134 bf black 1 1 1 c black 6 lw 363 258 m 1791 X s 363 303 m -45 Y s 475 280 m -22 Y s 587 280 m -22 Y s 699 280 m -22 Y s 811 303 m -45 Y s 923 280 m -22 Y s 1035 280 m -22 Y s 1147 280 m -22 Y s 1259 303 m -45 Y s 1371
 280 m -22 Y s 1483 280 m -22 Y s 1594 280 m -22 Y s 1706 303 m -45 Y s 1818 280 m -22 Y s 1930 280 m -22 Y s 2042 280 m -22 Y s 2154 303 m -45 Y s 363 2103 m 1791 X s 363 2059 m 44 Y s 475 2081 m 22 Y s 587 2081 m 22 Y s 699 2081 m 22 Y s 811 2059 m
 44 Y s 923 2081 m 22 Y s 1035 2081 m 22 Y s 1147 2081 m 22 Y s 1259 2059 m 44 Y s 1371 2081 m 22 Y s 1483 2081 m 22 Y s 1594 2081 m 22 Y s 1706 2059 m 44 Y s 1818 2081 m 22 Y s 1930 2081 m 22 Y s 2042 2081 m 22 Y s 2154 2059 m 44 Y s 363 258 m 1845
 Y s 408 258 m -45 X s 385 345 m -22 X s 385 433 m -22 X s 385 521 m -22 X s 385 608 m -22 X s 408 696 m -45 X s 385 784 m -22 X s 385 871 m -22 X s 385 959 m -22 X s 385 1047 m -22 X s 408 1134 m -45 X s 385 1222 m -22 X s 385 1310 m -22 X s 385
 1397 m -22 X s 385 1485 m -22 X s 408 1573 m -45 X s 385 1660 m -22 X s 385 1748 m -22 X s 385 1836 m -22 X s 385 1924 m -22 X s 408 2011 m -45 X s 408 2011 m -45 X s 385 2099 m -22 X s 2154 258 m 1845 Y s 2109 258 m 45 X s 2132 345 m 22 X s 2132
 433 m 22 X s 2132 521 m 22 X s 2132 608 m 22 X s 2109 696 m 45 X s 2132 784 m 22 X s 2132 871 m 22 X s 2132 959 m 22 X s 2132 1047 m 22 X s 2109 1134 m 45 X s 2132 1222 m 22 X s 2132 1310 m 22 X s 2132 1397 m 22 X s 2132 1485 m 22 X s 2109 1573 m 45
 X s 2132 1660 m 22 X s 2132 1748 m 22 X s 2132 1836 m 22 X s 2132 1924 m 22 X s 2109 2011 m 45 X s 2109 2011 m 45 X s 2132 2099 m 22 X s
 gr  gr showpage
end
%%EOF
